\relax 
\providecommand\hyper@newdestlabel[2]{}
\providecommand\HyperFirstAtBeginDocument{\AtBeginDocument}
\HyperFirstAtBeginDocument{\ifx\hyper@anchor\@undefined
\global\let\oldcontentsline\contentsline
\gdef\contentsline#1#2#3#4{\oldcontentsline{#1}{#2}{#3}}
\global\let\oldnewlabel\newlabel
\gdef\newlabel#1#2{\newlabelxx{#1}#2}
\gdef\newlabelxx#1#2#3#4#5#6{\oldnewlabel{#1}{{#2}{#3}}}
\AtEndDocument{\ifx\hyper@anchor\@undefined
\let\contentsline\oldcontentsline
\let\newlabel\oldnewlabel
\fi}
\fi}
\global\let\hyper@last\relax 
\gdef\HyperFirstAtBeginDocument#1{#1}
\providecommand\HyField@AuxAddToFields[1]{}
\providecommand\HyField@AuxAddToCoFields[2]{}
\emailauthor{Alessandro.Georgoudis@physics.uu.se}{Alessandro Georgoudis}
\emailauthor{Kasper.Larsen@soton.ac.uk}{Kasper J. Larsen}
\Newlabel{author}{1}
\Newlabel{a}{a}
\Newlabel{b}{b}
\Newlabel{c}{c}
\citation{Tkachov:1981wb,Chetyrkin:1981qh}
\citation{Smirnov:2010hn}
\citation{Laporta:2001dd,Laporta:2000dc}
\citation{Anastasiou:2004vj}
\citation{Smirnov:2008iw,Smirnov:2014hma}
\citation{Studerus:2009ye,vonManteuffel:2012yz}
\citation{Lee:2012cn}
\citation{vonManteuffel:2014ixa,vonManteuffel:2015gxa,vonManteuffel:2016xki,Peraro:2016wsq}
\citation{Gluza:2010ws}
\citation{Schabinger:2011dz}
\citation{Kotikov:1990kg,Kotikov:1991pm,Bern:1993kr,Remiddi:1997ny,Gehrmann:1999as,Ablinger:2015tua}
\@writefile{toc}{\contentsline {section}{\numberline {1}Introduction}{2}{section.1}}
\newlabel{IBP}{{1}{2}{Introduction}{equation.1.1}{}}
\citation{Henn:2013pwa}
\citation{Lee:2014ioa,Meyer:2016slj,Adams:2017tga}
\citation{Remiddi:2016gno,Bonciani:2016qxi,Primo:2016ebd}
\citation{Larsen:2015ped}
\citation{Ita:2015tya}
\citation{DGPS}
\newlabel{DE}{{2}{3}{Introduction}{equation.1.2}{}}
\citation{Lee:2013hzt}
\citation{Larsen:2015ped}
\@writefile{toc}{\contentsline {section}{\numberline {2}Algorithm}{4}{section.2}}
\citation{Davydychev:2000na,Czakon:2006pf,Boughezal:2006xk}
\citation{Gluza:2010ws}
\newlabel{Feynman}{{3}{5}{Algorithm}{equation.2.3}{}}
\newlabel{eq:2}{{4}{5}{Algorithm}{equation.2.4}{}}
\citation{Larsen:2015ped}
\citation{Ossola:2006us,Ossola:2007ax,Ellis:2011cr,Ellis:2007br,Mastrolia:2011pr,Badger:2012dp}
\citation{Zhang:2012ce,Mastrolia:2012an}
\citation{Baikov:1996rk}
\newlabel{invProp}{{5}{6}{Algorithm}{equation.2.5}{}}
\newlabel{SP_counting}{{6}{6}{Algorithm}{equation.2.6}{}}
\newlabel{eq:7}{{7}{6}{Algorithm}{equation.2.7}{}}
\newlabel{Baikov}{{8}{6}{Algorithm}{equation.2.8}{}}
\citation{Ita:2015tya,Larsen:2015ped}
\citation{vanNeerven:1983vr}
\citation{Lee:2010wea}
\citation{MR1633290}
\citation{MR1633290}
\@writefile{toc}{\contentsline {subsection}{\numberline {2.1}Associated graphs and their symmetries}{7}{subsection.2.1}}
\newlabel{graph_sym}{{2.1}{7}{Associated graphs and their symmetries}{subsection.2.1}{}}
\newlabel{eq:3}{{10}{7}{Associated graphs and their symmetries}{equation.2.10}{}}
\newlabel{eq:4}{{11}{7}{Associated graphs and their symmetries}{equation.2.11}{}}
\newlabel{pentabox_invProp}{{12}{7}{Associated graphs and their symmetries}{equation.2.12}{}}
\providecommand*\caption@xref[2]{\@setref\relax\@undefined{#1}}
\newlabel{pentagon-box}{{1a}{8}{The pentagon-box diagram $\la 12345678\ra $.\relax }{figure.caption.1}{}}
\newlabel{sub@pentagon-box}{{a}{8}{The pentagon-box diagram $\la 12345678\ra $.\relax }{figure.caption.1}{}}
\newlabel{triangle-box}{{1b}{8}{The $\la 145678\ra $ subdiagram of the pentagon-box diagram.\relax }{figure.caption.1}{}}
\newlabel{sub@triangle-box}{{b}{8}{The $\la 145678\ra $ subdiagram of the pentagon-box diagram.\relax }{figure.caption.1}{}}
\@writefile{lof}{\contentsline {figure}{\numberline {1}{\ignorespaces Pentagon-box diagram and one of its subdiagrams.\relax }}{8}{figure.caption.1}}
\newlabel{fig:pentabox_family}{{1}{8}{Pentagon-box diagram and one of its subdiagrams.\relax }{figure.caption.1}{}}
\newlabel{eq:5}{{13}{8}{Associated graphs and their symmetries}{equation.2.13}{}}
\citation{Mastrolia:2016dhn}
\newlabel{145678_G}{{14}{9}{Associated graphs and their symmetries}{equation.2.14}{}}
\newlabel{145678_Affine}{{15}{9}{Associated graphs and their symmetries}{equation.2.15}{}}
\newlabel{eq:6}{{16}{9}{Associated graphs and their symmetries}{equation.2.16}{}}
\citation{MR1633290}
\@writefile{toc}{\contentsline {subsection}{\numberline {2.2}Adaptive parameterization and further graph simplifications}{10}{subsection.2.2}}
\newlabel{adp_red}{{2.2}{10}{Adaptive parameterization and further graph simplifications}{subsection.2.2}{}}
\newlabel{tadpole}{{2a}{11}{The subdiagram $\la 12346\ra $, which contains a massless tadpole.\relax }{figure.caption.2}{}}
\newlabel{sub@tadpole}{{a}{11}{The subdiagram $\la 12346\ra $, which contains a massless tadpole.\relax }{figure.caption.2}{}}
\newlabel{factorable}{{2b}{11}{The subdiagram $\la 1234567\ra $, which is factorable.\relax }{figure.caption.2}{}}
\newlabel{sub@factorable}{{b}{11}{The subdiagram $\la 1234567\ra $, which is factorable.\relax }{figure.caption.2}{}}
\@writefile{lof}{\contentsline {figure}{\numberline {2}{\ignorespaces Some diagrams which can be simplified in the adaptive parametrization.\relax }}{11}{figure.caption.2}}
\newlabel{fig:pentabox_family}{{2}{11}{Some diagrams which can be simplified in the adaptive parametrization.\relax }{figure.caption.2}{}}
\@writefile{toc}{\contentsline {subsection}{\numberline {2.3}IBP identities on maximal cuts and master integrals}{11}{subsection.2.3}}
\newlabel{sec:IBPs_on_maximal_cuts}{{2.3}{11}{IBP identities on maximal cuts and master integrals}{subsection.2.3}{}}
\citation{Gluza:2010ws}
\newlabel{collapsible}{{17}{12}{IBP identities on maximal cuts and master integrals}{equation.2.17}{}}
\newlabel{monomial_IBP}{{18}{12}{IBP identities on maximal cuts and master integrals}{equation.2.18}{}}
\citation{Ita:2015tya,Larsen:2015ped}
\citation{Larsen:2015ped}
\citation{Lee:2014tja}
\newlabel{Baikov_mc}{{19}{13}{IBP identities on maximal cuts and master integrals}{equation.2.19}{}}
\newlabel{IBP_Ansatz}{{21}{13}{IBP identities on maximal cuts and master integrals}{equation.2.21}{}}
\newlabel{syzygy}{{22}{13}{IBP identities on maximal cuts and master integrals}{equation.2.22}{}}
\newlabel{IBP_maximal_cut}{{23}{13}{IBP identities on maximal cuts and master integrals}{equation.2.23}{}}
\citation{Kosower:2011ty,Johansson:2012sf,CaronHuot:2012ab,Johansson:2012zv,Johansson:2013sda,Sogaard:2013fpa}
\citation{Larsen:2015ped}
\citation{Ita:2015tya}
\newlabel{eq:9}{{24}{14}{IBP identities on maximal cuts and master integrals}{equation.2.24}{}}
\newlabel{eq:10}{{25}{14}{IBP identities on maximal cuts and master integrals}{equation.2.25}{}}
\citation{Ita:2015tya}
\citation{Hauser1993}
\citation{opac-b1094391}
\citation{Hauser1993}
\citation{opac-b1094391}
\@writefile{toc}{\contentsline {subsection}{\numberline {2.4}Geometric interpretation of syzygy equation}{15}{subsection.2.4}}
\newlabel{eq:8}{{26}{15}{Geometric interpretation of syzygy equation}{equation.2.26}{}}
\newlabel{eq:1}{{27}{15}{Geometric interpretation of syzygy equation}{equation.2.27}{}}
\newlabel{non-singular-hypersurface}{{28}{15}{Geometric interpretation of syzygy equation}{equation.2.28}{}}
\@writefile{toc}{\contentsline {section}{\numberline {3}Examples and performance}{15}{section.3}}
\newlabel{tb_def}{{1}{16}{Initialization for a massless triple-box diagram}{lstlisting.1}{}}
\@writefile{lol}{\contentsline {lstlisting}{\numberline {1}Initialization for a massless triple-box diagram.}{16}{lstlisting.1}}
\newlabel{pcsteup}{{6}{16}{}{Hfootnote.6}{}}
\citation{Meyer:2016slj,Bonciani:2016qxi,DiVita:2014pza}
\newlabel{tripleboxMI}{{2}{17}{Example of use of \lsm {FindAllMIs}}{lstlisting.2}{}}
\@writefile{lol}{\contentsline {lstlisting}{\numberline {2}Example of use of \lstinline [style=MathPlain]{FindAllMIs}.}{17}{lstlisting.2}}
\newlabel{mi3b}{{29}{17}{Examples and performance}{equation.3.29}{}}
\newlabel{ispc}{{30}{17}{Examples and performance}{equation.3.30}{}}
\@writefile{lof}{\contentsline {figure}{\numberline {3}{\ignorespaces Irreducible topologies for the massless triple-box diagram.\relax }}{18}{figure.caption.5}}
\newlabel{tb_fg}{{3}{18}{Irreducible topologies for the massless triple-box diagram.\relax }{figure.caption.5}{}}
\@writefile{toc}{\contentsline {subsection}{\numberline {3.1}IBP identities evaluated on their maximal cut}{18}{subsection.3.1}}
\@writefile{lof}{\contentsline {figure}{\numberline {4}{\ignorespaces Computation time and number of master integrals for different topologies and mass configurations.\relax }}{19}{figure.caption.6}}
\newlabel{ex_rd}{{4}{19}{Computation time and number of master integrals for different topologies and mass configurations.\relax }{figure.caption.6}{}}
\@writefile{lol}{\contentsline {lstlisting}{\numberline {3}Sample code for \lstinline [style=MathPlain]{IntegralRed}}{19}{lstlisting.3}}
\citation{Faugere:2002:NEA:780506.780516}
\citation{Hauser1993}
\citation{Ita:2015tya,Larsen:2015ped}
\@writefile{toc}{\contentsline {section}{\numberline {4}Summary and Outlook}{20}{section.4}}
\citation{DGPS}
\@writefile{toc}{\contentsline {section}{\numberline {Appendix A}Usage of Azurite}{21}{appendix.A}}
\newlabel{usage_azu}{{Appendix A}{21}{Usage of Azurite}{appendix.A}{}}
\@writefile{toc}{\contentsline {subsection}{\numberline {Appendix A.1}Installation}{21}{subsection.A.1}}
\@writefile{toc}{\contentsline {subsection}{\numberline {Appendix A.2}Commands and Options}{22}{subsection.A.2}}
\@writefile{toc}{\contentsline {subsubsection}{\numberline {Appendix A.2.1}Path setup}{22}{subsubsection.A.2.1}}
\@writefile{toc}{\contentsline {subsubsection}{\numberline {Appendix A.2.2}Kinematics and loop structure information}{22}{subsubsection.A.2.2}}
\@writefile{toc}{\contentsline {subsubsection}{\numberline {Appendix A.2.3}Associated graphs and their discrete symmetries}{23}{subsubsection.A.2.3}}
\@writefile{toc}{\contentsline {subsubsection}{\numberline {Appendix A.2.4}Master integrals}{25}{subsubsection.A.2.4}}
\newlabel{appendix_mi}{{Appendix A.2.4}{25}{Master integrals}{subsubsection.A.2.4}{}}
\citation{Larsen:2015ped}
\citation{Kotikov:1990kg,Kotikov:1991pm,Bern:1993kr,Remiddi:1997ny,Gehrmann:1999as,Ablinger:2015tua,Henn:2013pwa}
\@writefile{toc}{\contentsline {subsubsection}{\numberline {Appendix A.2.5}Analytic IBP identities evaluated on their maximal cut}{28}{subsubsection.A.2.5}}
\newlabel{integral_index}{{A.1}{28}{Analytic IBP identities evaluated on their maximal cut}{equation.A.1}{}}
\@writefile{toc}{\contentsline {section}{\numberline {Appendix B}Integrals with squared propagators in Baikov representation on maximal cuts}{28}{appendix.B}}
\newlabel{Baikov_sq_mc}{{B.1}{29}{Integrals with squared propagators in Baikov representation on maximal cuts}{equation.B.1}{}}
\newlabel{pentabox_invProp}{{B.3}{29}{Integrals with squared propagators in Baikov representation on maximal cuts}{equation.B.3}{}}
\newlabel{eq:12}{{B.4}{29}{Integrals with squared propagators in Baikov representation on maximal cuts}{equation.B.4}{}}
\newlabel{eq:13}{{B.5}{30}{Integrals with squared propagators in Baikov representation on maximal cuts}{equation.B.5}{}}
\newlabel{sq}{{B.7}{30}{Integrals with squared propagators in Baikov representation on maximal cuts}{equation.B.7}{}}
\newlabel{dim_shift}{{B.10}{30}{Integrals with squared propagators in Baikov representation on maximal cuts}{equation.B.10}{}}
\bibstyle{elsarticle-num}
\bibdata{Azurite}
\bibcite{Tkachov:1981wb}{{1}{}{{}}{{}}}
\bibcite{Chetyrkin:1981qh}{{2}{}{{}}{{}}}
\bibcite{Smirnov:2010hn}{{3}{}{{}}{{}}}
\bibcite{Laporta:2001dd}{{4}{}{{}}{{}}}
\bibcite{Laporta:2000dc}{{5}{}{{}}{{}}}
\bibcite{Anastasiou:2004vj}{{6}{}{{}}{{}}}
\bibcite{Smirnov:2008iw}{{7}{}{{}}{{}}}
\newlabel{eq:15}{{B.11}{31}{Integrals with squared propagators in Baikov representation on maximal cuts}{equation.B.11}{}}
\newlabel{eq:11}{{B.12}{31}{Integrals with squared propagators in Baikov representation on maximal cuts}{equation.B.12}{}}
\bibcite{Smirnov:2014hma}{{8}{}{{}}{{}}}
\bibcite{Studerus:2009ye}{{9}{}{{}}{{}}}
\bibcite{vonManteuffel:2012yz}{{10}{}{{}}{{}}}
\bibcite{Lee:2012cn}{{11}{}{{}}{{}}}
\bibcite{vonManteuffel:2014ixa}{{12}{}{{}}{{}}}
\bibcite{vonManteuffel:2015gxa}{{13}{}{{}}{{}}}
\bibcite{vonManteuffel:2016xki}{{14}{}{{}}{{}}}
\bibcite{Peraro:2016wsq}{{15}{}{{}}{{}}}
\bibcite{Gluza:2010ws}{{16}{}{{}}{{}}}
\bibcite{Schabinger:2011dz}{{17}{}{{}}{{}}}
\bibcite{Kotikov:1990kg}{{18}{}{{}}{{}}}
\bibcite{Kotikov:1991pm}{{19}{}{{}}{{}}}
\bibcite{Bern:1993kr}{{20}{}{{}}{{}}}
\bibcite{Remiddi:1997ny}{{21}{}{{}}{{}}}
\bibcite{Gehrmann:1999as}{{22}{}{{}}{{}}}
\bibcite{Ablinger:2015tua}{{23}{}{{}}{{}}}
\bibcite{Henn:2013pwa}{{24}{}{{}}{{}}}
\bibcite{Lee:2014ioa}{{25}{}{{}}{{}}}
\bibcite{Meyer:2016slj}{{26}{}{{}}{{}}}
\bibcite{Adams:2017tga}{{27}{}{{}}{{}}}
\bibcite{Remiddi:2016gno}{{28}{}{{}}{{}}}
\bibcite{Bonciani:2016qxi}{{29}{}{{}}{{}}}
\bibcite{Primo:2016ebd}{{30}{}{{}}{{}}}
\bibcite{Larsen:2015ped}{{31}{}{{}}{{}}}
\bibcite{Ita:2015tya}{{32}{}{{}}{{}}}
\bibcite{DGPS}{{33}{}{{}}{{}}}
\bibcite{Lee:2013hzt}{{34}{}{{}}{{}}}
\bibcite{Davydychev:2000na}{{35}{}{{}}{{}}}
\bibcite{Czakon:2006pf}{{36}{}{{}}{{}}}
\bibcite{Boughezal:2006xk}{{37}{}{{}}{{}}}
\bibcite{Ossola:2006us}{{38}{}{{}}{{}}}
\bibcite{Ossola:2007ax}{{39}{}{{}}{{}}}
\bibcite{Ellis:2011cr}{{40}{}{{}}{{}}}
\bibcite{Ellis:2007br}{{41}{}{{}}{{}}}
\bibcite{Mastrolia:2011pr}{{42}{}{{}}{{}}}
\bibcite{Badger:2012dp}{{43}{}{{}}{{}}}
\bibcite{Zhang:2012ce}{{44}{}{{}}{{}}}
\bibcite{Mastrolia:2012an}{{45}{}{{}}{{}}}
\bibcite{Baikov:1996rk}{{46}{}{{}}{{}}}
\bibcite{vanNeerven:1983vr}{{47}{}{{}}{{}}}
\bibcite{Lee:2010wea}{{48}{}{{}}{{}}}
\bibcite{MR1633290}{{49}{}{{}}{{}}}
\bibcite{Mastrolia:2016dhn}{{50}{}{{}}{{}}}
\bibcite{Lee:2014tja}{{51}{}{{}}{{}}}
\bibcite{Kosower:2011ty}{{52}{}{{}}{{}}}
\bibcite{Johansson:2012sf}{{53}{}{{}}{{}}}
\bibcite{CaronHuot:2012ab}{{54}{}{{}}{{}}}
\bibcite{Johansson:2012zv}{{55}{}{{}}{{}}}
\bibcite{Johansson:2013sda}{{56}{}{{}}{{}}}
\bibcite{Sogaard:2013fpa}{{57}{}{{}}{{}}}
\bibcite{Hauser1993}{{58}{}{{}}{{}}}
\bibcite{opac-b1094391}{{59}{}{{}}{{}}}
\bibcite{DiVita:2014pza}{{60}{}{{}}{{}}}
\bibcite{Faugere:2002:NEA:780506.780516}{{61}{}{{}}{{}}}
\providecommand\NAT@force@numbers{}\NAT@force@numbers
