\relax 
\providecommand\hyper@newdestlabel[2]{}
\providecommand\HyperFirstAtBeginDocument{\AtBeginDocument}
\HyperFirstAtBeginDocument{\ifx\hyper@anchor\@undefined
\global\let\oldcontentsline\contentsline
\gdef\contentsline#1#2#3#4{\oldcontentsline{#1}{#2}{#3}}
\global\let\oldnewlabel\newlabel
\gdef\newlabel#1#2{\newlabelxx{#1}#2}
\gdef\newlabelxx#1#2#3#4#5#6{\oldnewlabel{#1}{{#2}{#3}}}
\AtEndDocument{\ifx\hyper@anchor\@undefined
\let\contentsline\oldcontentsline
\let\newlabel\oldnewlabel
\fi}
\fi}
\global\let\hyper@last\relax 
\gdef\HyperFirstAtBeginDocument#1{#1}
\providecommand\HyField@AuxAddToFields[1]{}
\providecommand\HyField@AuxAddToCoFields[2]{}
\citation{Tkachov:1981wb,Chetyrkin:1981qh}
\citation{Smirnov:2010hn}
\citation{Laporta:2001dd,Laporta:2000dc}
\citation{Anastasiou:2004vj}
\citation{Smirnov:2008iw,Smirnov:2014hma}
\citation{Studerus:2009ye,vonManteuffel:2012yz}
\citation{Lee:2012cn}
\citation{Gluza:2010ws}
\citation{Kotikov:1990kg,Kotikov:1991pm,Bern:1993kr,Remiddi:1997ny,Gehrmann:1999as}
\citation{Henn:2013pwa}
\@writefile{toc}{\contentsline {section}{\numberline {1}Introduction}{1}{section.1}}
\newlabel{IBP}{{1.1}{1}{Introduction}{equation.1.1}{}}
\citation{Larsen:2015ped}
\citation{Ita:2015tya}
\citation{Larsen:2015ped}
\citation{Lee:2013hzt}
\newlabel{DE}{{1.2}{2}{Introduction}{equation.1.2}{}}
\citation{Gluza:2010ws}
\@writefile{toc}{\contentsline {section}{\numberline {2}Algorithm}{3}{section.2}}
\newlabel{Feynman}{{2.1}{3}{Algorithm}{equation.2.1}{}}
\newlabel{eq:2}{{2.2}{3}{Algorithm}{equation.2.2}{}}
\newlabel{invProp}{{2.3}{3}{Algorithm}{equation.2.3}{}}
\@writefile{toc}{\contentsline {subsection}{\numberline {2.1}Graph and symmetry}{3}{subsection.2.1}}
\newlabel{eq:3}{{2.4}{3}{Graph and symmetry}{equation.2.4}{}}
\newlabel{eq:4}{{2.5}{3}{Graph and symmetry}{equation.2.5}{}}
\newlabel{pentabox_invProp}{{2.6}{3}{Graph and symmetry}{equation.2.6}{}}
\providecommand*\caption@xref[2]{\@setref\relax\@undefined{#1}}
\newlabel{pentagon-box}{{1a}{4}{2-loop pentagon-box diagram, $\la 12345678\ra $\relax }{figure.caption.2}{}}
\newlabel{sub@pentagon-box}{{a}{4}{2-loop pentagon-box diagram, $\la 12345678\ra $\relax }{figure.caption.2}{}}
\newlabel{triangle-box}{{1b}{4}{2-loop pentagon-box's sub-diagram, $\la 145678\ra $\relax }{figure.caption.2}{}}
\newlabel{sub@triangle-box}{{b}{4}{2-loop pentagon-box's sub-diagram, $\la 145678\ra $\relax }{figure.caption.2}{}}
\@writefile{lof}{\contentsline {figure}{\numberline {1}{\ignorespaces Pentagon-box diagram and one of its sub-diagram\relax }}{4}{figure.caption.2}}
\newlabel{fig:pentabox_family}{{1}{4}{Pentagon-box diagram and one of its sub-diagram\relax }{figure.caption.2}{}}
\newlabel{eq:5}{{2.1}{4}{Graph and symmetry}{equation.2.7}{}}
\newlabel{145678_G}{{2.8}{4}{Graph and symmetry}{equation.2.8}{}}
\citation{Ossola:2006us,Ossola:2007ax,Ellis:2011cr,Ellis:2007br}
\citation{Zhang:2012ce,Mastrolia:2012an}
\citation{Mastrolia:2016dhn}
\newlabel{145678_Affine}{{2.9}{5}{Graph and symmetry}{equation.2.9}{}}
\newlabel{eq:6}{{2.10}{5}{Graph and symmetry}{equation.2.10}{}}
\@writefile{toc}{\contentsline {subsection}{\numberline {2.2}Adaptive parameterization}{5}{subsection.2.2}}
\newlabel{SP_counting}{{2.11}{5}{Adaptive parameterization}{equation.2.11}{}}
\newlabel{eq:7}{{2.12}{5}{Adaptive parameterization}{equation.2.12}{}}
\citation{Baikov:1996rk}
\citation{Ita:2015tya,Larsen:2015ped}
\newlabel{tadpole}{{2a}{6}{a sub-diagram whose external lines can be combined, $\la 12346\ra $\relax }{figure.caption.3}{}}
\newlabel{sub@tadpole}{{a}{6}{a sub-diagram whose external lines can be combined, $\la 12346\ra $\relax }{figure.caption.3}{}}
\newlabel{factorable}{{2b}{6}{a factorable sub-diagram, $\la 1234567\ra $\relax }{figure.caption.3}{}}
\newlabel{sub@factorable}{{b}{6}{a factorable sub-diagram, $\la 1234567\ra $\relax }{figure.caption.3}{}}
\@writefile{lof}{\contentsline {figure}{\numberline {2}{\ignorespaces Some diagrams which can be simplified in adaptive parameterization\relax }}{6}{figure.caption.3}}
\newlabel{fig:pentabox_family}{{2}{6}{Some diagrams which can be simplified in adaptive parameterization\relax }{figure.caption.3}{}}
\newlabel{Baikov}{{2.13}{6}{Adaptive parameterization}{equation.2.13}{}}
\@writefile{toc}{\contentsline {subsection}{\numberline {2.3}IBPs with maximal cut and master integrals}{7}{subsection.2.3}}
\@writefile{toc}{\contentsline {section}{\numberline {3}Usage}{7}{section.3}}
\@writefile{toc}{\contentsline {section}{\numberline {4}Examples and performances}{7}{section.4}}
\@writefile{lof}{\contentsline {figure}{\numberline {3}{\ignorespaces Azurite initializzation for massless Triple-Box.\relax }}{7}{figure.caption.4}}
\newlabel{tb_def}{{3}{7}{Azurite initializzation for massless Triple-Box.\relax }{figure.caption.4}{}}
\@writefile{lof}{\contentsline {figure}{\numberline {4}{\ignorespaces Example of use for \emph  {FindAllMIs}\relax }}{7}{figure.caption.5}}
\newlabel{tb_almi}{{4}{7}{Example of use for \emph {FindAllMIs}\relax }{figure.caption.5}{}}
\bibstyle{unsrt}
\bibdata{Azurite.bib}
\@writefile{lof}{\contentsline {figure}{\numberline {5}{\ignorespaces Irreducible topologies for the massless Triple-Box\relax }}{8}{figure.caption.6}}
\newlabel{tb_fg}{{5}{8}{Irreducible topologies for the massless Triple-Box\relax }{figure.caption.6}{}}
\@writefile{toc}{\contentsline {section}{\numberline {5}Summary and Outlook}{8}{section.5}}
\@writefile{lof}{\contentsline {figure}{\numberline {6}{\ignorespaces Examples for different topologies and mass configurations.\relax }}{9}{figure.caption.7}}
\newlabel{ex_rd}{{6}{9}{Examples for different topologies and mass configurations.\relax }{figure.caption.7}{}}
