\BOOKMARK [1][-]{section.1}{Introduction}{}% 1
\BOOKMARK [1][-]{section.2}{Algorithm}{}% 2
\BOOKMARK [2][-]{subsection.2.1}{Associated graphs and their symmetries}{section.2}% 3
\BOOKMARK [2][-]{subsection.2.2}{Adaptive parameterization and further graph simplifications}{section.2}% 4
\BOOKMARK [2][-]{subsection.2.3}{IBP identities on maximal cuts and master integrals}{section.2}% 5
\BOOKMARK [2][-]{subsection.2.4}{Geometric interpretation of syzygy equation}{section.2}% 6
\BOOKMARK [1][-]{section.3}{Examples and performance}{}% 7
\BOOKMARK [2][-]{subsection.3.1}{IBP identities evaluated on their maximal cut}{section.3}% 8
\BOOKMARK [1][-]{section.4}{Summary and Outlook}{}% 9
\BOOKMARK [1][-]{appendix.A}{Usage of Azurite}{}% 10
\BOOKMARK [2][-]{subsection.A.1}{Installation}{appendix.A}% 11
\BOOKMARK [2][-]{subsection.A.2}{Commands and Options}{appendix.A}% 12
\BOOKMARK [3][-]{subsubsection.A.2.1}{Path setup}{subsection.A.2}% 13
\BOOKMARK [3][-]{subsubsection.A.2.2}{Kinematics and loop structure information}{subsection.A.2}% 14
\BOOKMARK [3][-]{subsubsection.A.2.3}{Associated graphs and their discrete symmetries}{subsection.A.2}% 15
\BOOKMARK [3][-]{subsubsection.A.2.4}{Master integrals}{subsection.A.2}% 16
\BOOKMARK [3][-]{subsubsection.A.2.5}{Analytic IBP identities evaluated on their maximal cut}{subsection.A.2}% 17
\BOOKMARK [1][-]{appendix.B}{Integrals with squared propagators in Baikov representation on maximal cuts}{}% 18
